{
  "type": "minecraft:crafting_shaped",
  "pattern": [
    "X",
    "#",
    "#"
  ],
  "key": {
    "#": {
      "item": "minecraft:stick"
    },
    "X": [
	  {
        "item": "goodnightsleep:delusion_cobblestone"
	  }
    ]
  },
  "result": {
    "item": "minecraft:stone_shovel"
  }
}