{
    "parent": "block/slab",
    "textures": {
        "bottom": "goodnightsleep:block/construction/blood_plank",
        "top": "goodnightsleep:block/construction/blood_plank",
        "side": "goodnightsleep:block/construction/blood_plank"
    }
}
