{
    "parent": "block/inner_stairs",
    "textures": {
        "bottom": "goodnightsleep:block/delusion_stone",
        "top": "goodnightsleep:block/delusion_stone",
        "side": "goodnightsleep:block/delusion_stone"
    }
}
