{
    "parent": "block/outer_stairs",
    "textures": {
        "bottom": "goodnightsleep:block/construction/white_plank",
        "top": "goodnightsleep:block/construction/white_plank",
        "side": "goodnightsleep:block/construction/white_plank"
    }
}
