{
    "variants": {
        "moisture=0": { "model": "goodnightsleep:block/dream_farmland_dry" },
        "moisture=1": { "model": "goodnightsleep:block/dream_farmland_dry" },
        "moisture=2": { "model": "goodnightsleep:block/dream_farmland_dry" },
        "moisture=3": { "model": "goodnightsleep:block/dream_farmland_dry" },
        "moisture=4": { "model": "goodnightsleep:block/dream_farmland_dry" },
        "moisture=5": { "model": "goodnightsleep:block/dream_farmland_dry" },
        "moisture=6": { "model": "goodnightsleep:block/dream_farmland_dry" },
        "moisture=7": { "model": "goodnightsleep:block/dream_farmland_moist" }
    }
}
