{
	"type": "minecraft:block",
	"pools": [
		{
			"name": "block",
			"rolls": 1,
			"entries": [
				{
					"type": "minecraft:item",
					"name": "goodnightsleep:delusion_stone_slab",
					"functions": [
						{
							"function": "minecraft:set_count",
							"conditions": [
								{
									"condition": "minecraft:block_state_property",
									"block": "goodnightsleep:delusion_stone_slab",
									"properties": {
										"type": "double"
									}
								}
							],
							"count": 2
						},
						{
							"function": "minecraft:explosion_decay"
						}
					]
				}
			]
		}
	]
}
